<?xml version="1.0" encoding="utf-8"?>
<!-- Generator: Adobe Illustrator 21.0.0, SVG Export Plug-In . SVG Version: 6.00 Build 0)  -->
<svg version="1.1" id="Layer_1" xmlns="http://www.w3.org/2000/svg" xmlns:xlink="http://www.w3.org/1999/xlink" x="0px" y="0px"
	 viewBox="0 0 1096.4 197.2" enable-background="new 0 0 1096.4 197.2" xml:space="preserve">
<g>
	<path d="M194.7,118.6c-1.1-0.7-1.3-2-0.7-3.2c0.6-1.2,2-2.5,3-3.6c1.1-1.2,2.1-2.4,3.1-3.4c6.4-6.8,12.8-13.6,18.7-20.8
		c3.8-4.7,7.7-10.1,9.1-17.2c0.8-3.8,0.9-8.1,0.2-12.1c-1.7-11.1-8.2-18.4-17.2-22.3c-5.9-2.6-14.4-3.8-22.7-2.6
		c-15,2.2-24,11.3-25.5,27.1c-5.2-17.5-14.9-31-27.3-41.4C123.1,8.6,107.3,1.2,85.7,0c-1.9,0-3.8,0-5.7,0C61.1,0.8,46.7,7.1,35,15.5
		c-4,2.8-7.8,5.9-10.9,9.3C11.3,38.7,1.2,56,0.1,81.5c0,0.1,0,0.1-0.1,0.1c0,1.9,0,3.9,0,5.8c0.5,12.8,3.5,23.5,7.6,32.7
		c4.2,9.4,10,17.1,16.4,24c3.2,3.4,6.9,6.5,10.8,9.4c11.7,8.5,26.2,14.6,45.2,15.5c1.9,0,3.7,0,5.6,0c14.3-0.7,26.2-4.3,36.1-9.7
		c10-5.4,18.2-12.4,25.1-20.8c6.8-8.2,12.4-18.1,15.9-30c3.3-11.4,4.9-27.5,1.9-40.7c1.4,0.3,3.1,0.2,4.7,0.2c3.3,0,6.5-0.1,9.7-0.1
		c1.6,0,3.4,0.1,4.6-0.4c2.5-1.1,1.8-4.5,3-6.9c1-2.2,2.9-3.7,5.5-4.3c3.1-0.7,6.3-0.1,8.2,1.1c2.1,1.3,3.3,3.5,3.3,6.6
		c0.1,3.2-1.2,5.3-2.5,7.3c-1.4,2.1-2.8,3.9-4.3,5.6c-9,10.4-19.8,19.7-28.6,30.5c-2.7,3.4-6.2,7.7-7.1,12.6c-0.6,3,0.1,6.2,0.9,8.5
		c1.7,5,5.5,7.7,11.1,8.7c2.8,0.5,6.1,0.4,9.5,0.4c39.6,0,78.9,0,118.3,0c0,0,0,0,0-0.1c-33.1-5.6-66.6-11.8-99.9-17.5
		C198.9,119.8,196.2,119.5,194.7,118.6z M149.8,114.8c-3.7,8.7-8.6,16-14.6,22.5c-5.8,6.3-13,11.8-21.3,15.8c-8.3,4-18.5,7-30.1,7
		c-12.2,0-22.1-2.5-30.7-6.4c-8.5-3.9-15.6-9.2-21.6-15.5c-9-9.4-16-21.3-19.4-36.3c-1.1-5.1-1.6-10.6-1.8-16.7
		c-0.4-11.7,2.5-22.8,6-31c3.8-8.9,8.5-16.1,14.5-22.6c9.2-9.7,20.1-17,35-20.7c2.5-0.6,5.1-1.1,7.9-1.4c2.7-0.3,5.6-0.4,8.7-0.6
		c5.7-0.3,11.8,0.7,16.8,1.9c15,3.4,26.3,11,35.4,20.2c3.1,3.1,5.8,6.7,8.3,10.3c2.5,3.6,4.6,7.6,6.6,12c3.9,8.7,6.6,18.7,6.6,30.5
		C155.9,96,153.5,106,149.8,114.8z"/>
	<path d="M349.3,49.7h-28v70h28c19.3,0,34-15.2,34-35C383.3,64.9,368.6,49.7,349.3,49.7z M349.3,104.3h-12V65.1h12
		c11,0,18.6,7.6,18.6,19.6S360.3,104.3,349.3,104.3z"/>
	<rect x="392.3" y="49.7" width="16" height="70"/>
	<path d="M489.6,86.7v-6h-35.1v14h18.7c-2.5,6.7-8.6,10.8-17.9,10.8c-13.6,0-22-8.7-22-20.6c0-12.3,8.8-21,20.6-21
		c7.9,0,14.2,3.6,17.1,8.2l13.6-7.8c-5.9-9.4-17.2-16-30.6-16c-20.6,0-36.7,16.2-36.7,36.5c0,20.1,15.8,36.3,37.8,36.3
		C474.7,121.1,489.6,108.1,489.6,86.7z"/>
	<rect x="498.6" y="49.7" width="16" height="70"/>
	<polygon points="573.6,49.7 521.6,49.7 521.6,65.1 539.6,65.1 539.6,119.7 555.6,119.7 555.6,65.1 573.6,65.1 	"/>
	<path d="M613.8,49.7h-20.4l-23.8,70h17.5l3.5-11h26l3.5,11h17.5L613.8,49.7z M595.4,93.7l8.2-25.7l8.2,25.7H595.4z"/>
	<polygon points="659.6,49.7 643.6,49.7 643.6,119.7 684.6,119.7 684.6,104.3 659.6,104.3 	"/>
	<path d="M768.4,107.2l-4.5-2.7c-3.6,6.7-10.7,11.2-19.4,11.2c-13.1,0-22.9-10.2-22.9-23c0-12.9,9.8-23,22.9-23
		c8.6,0,16,4.4,19.1,11.2l4.4-2.6c-3.9-8.4-13-13.8-23.5-13.8c-16.3,0-28.4,12.2-28.4,28.2c0,16,12.1,28.2,28.4,28.2
		C755,120.9,764,115.5,768.4,107.2z"/>
	<path d="M804.4,64.5c-15.8,0-28.4,12.2-28.4,28.2c0,16,12.6,28.2,28.4,28.2c15.7,0,28.3-12.2,28.3-28.2
		C832.7,76.7,820.1,64.5,804.4,64.5z M804.4,115.7c-12.9,0-22.9-10.2-22.9-23c0-12.9,10-23,22.9-23c12.9,0,22.8,10.2,22.8,23
		C827.2,105.6,817.3,115.7,804.4,115.7z"/>
	<path d="M870.4,64.5c-8.3,0-15.2,3.5-19.3,11.4V65.7h-5.4v54h5.4V91.2c0-14.6,8.3-21.5,18.9-21.5c10.2,0,15.9,6.5,15.9,16.4v33.6
		h5.5V86.1C891.4,73.1,883.3,64.5,870.4,64.5z"/>
	<path d="M918.2,50.6l-5.5,1.6v13.5h-11.9V71h11.9v35.1c0,12.3,7.5,15.8,21.6,13.6v-4.9c-11,1-16.1,0.8-16.1-8.7V71h16.1v-5.3h-16.1
		V50.6z"/>
	<path d="M987.5,105.9c-3.1,5.7-9.8,9.8-18.7,9.8c-12.3,0-21.6-8-22.9-20.2h48.9c0-0.9,0.1-1.7,0.1-2.6c0-14.8-10.3-28.4-26.7-28.4
		c-16.5,0-28,12.3-28,28.2c0,16.3,11.8,28.2,28.4,28.2c10.7,0,19.1-4.9,23.5-12.2L987.5,105.9z M968.3,69.7
		c10.6,0,19.9,7.3,21.1,20.5h-43.4C947,78.2,956,69.7,968.3,69.7z"/>
	<path d="M1047.8,86.1v33.6h5.5V86.1c0-13.1-8.1-21.6-21-21.6c-8.3,0-15.2,3.5-19.3,11.4V65.7h-5.4v54h5.4V91.2
		c0-14.6,8.3-21.5,18.9-21.5C1042,69.7,1047.8,76.2,1047.8,86.1z"/>
	<path d="M1096.1,119.7v-4.9c-11,1-16.1,0.8-16.1-8.7V71h16.1v-5.3H1080V50.6l-5.5,1.6v13.5h-11.9V71h11.9v35.1
		C1074.5,118.4,1082,121.9,1096.1,119.7z"/>
	<polygon points="332.1,194 323.1,169.4 320.8,169.4 331,196.7 333.2,196.7 343.4,169.4 341.2,169.4 	"/>
	<rect x="362.9" y="169.4" width="2.1" height="27.3"/>
	<path d="M397.6,169.4h-10.3v27.3h10.3c7.5,0,12.9-6.1,12.9-13.7S405.2,169.4,397.6,169.4z M397.6,194.8h-8.2v-23.4h8.2
		c6.4,0,10.8,5.2,10.8,11.7S404.1,194.8,397.6,194.8z"/>
	<polygon points="433.4,183.9 445.9,183.9 445.9,182 433.4,182 433.4,171.4 446.8,171.4 446.8,169.4 431.3,169.4 431.3,196.7 
		447,196.7 447,194.8 433.4,194.8 	"/>
	<path d="M480,169c-7.9,0-14.1,6.3-14.1,14.1c0,7.8,6.2,14.1,14.1,14.1s14.1-6.3,14.1-14.1C494.1,175.3,487.9,169,480,169z
		 M480,195.2c-6.7,0-12-5.4-12-12.1s5.3-12.1,12-12.1s12,5.4,12,12.1S486.8,195.2,480,195.2z"/>
	<path d="M635,169.4h-9.3v27.3h2.1v-10.4h7.2c4.9,0,8.5-3.6,8.5-8.4C643.5,173,639.9,169.4,635,169.4z M635,184.4h-7.2v-13h7.2
		c3.7,0,6.4,2.7,6.4,6.5C641.4,181.6,638.8,184.4,635,184.4z"/>
	<polygon points="682.2,181.7 666.3,181.7 666.3,169.4 664.2,169.4 664.2,196.7 666.3,196.7 666.3,183.7 682.2,183.7 682.2,196.7 
		684.2,196.7 684.2,169.4 682.2,169.4 	"/>
	<path d="M719.1,169c-7.9,0-14.1,6.3-14.1,14.1c0,7.8,6.2,14.1,14.1,14.1c7.9,0,14.1-6.3,14.1-14.1C733.2,175.3,727,169,719.1,169z
		 M719.1,195.2c-6.7,0-12-5.4-12-12.1s5.3-12.1,12-12.1c6.7,0,12,5.4,12,12.1S725.9,195.2,719.1,195.2z"/>
	<polygon points="750,171.4 758.6,171.4 758.6,196.7 760.7,196.7 760.7,171.4 769.2,171.4 769.2,169.4 750,169.4 	"/>
	<path d="M800.1,169c-7.9,0-14.1,6.3-14.1,14.1c0,7.8,6.2,14.1,14.1,14.1s14.1-6.3,14.1-14.1C814.2,175.3,808,169,800.1,169z
		 M800.1,195.2c-6.7,0-12-5.4-12-12.1s5.3-12.1,12-12.1s12,5.4,12,12.1S806.8,195.2,800.1,195.2z"/>
	<polygon points="964.7,192.9 948.5,169.4 946.7,169.4 946.7,196.7 948.8,196.7 948.8,173.2 964.9,196.7 966.7,196.7 966.7,169.4 
		964.7,169.4 	"/>
	<polygon points="991.2,183.9 1003.7,183.9 1003.7,182 991.2,182 991.2,171.4 1004.6,171.4 1004.6,169.4 989.1,169.4 989.1,196.7 
		1004.8,196.7 1004.8,194.8 991.2,194.8 	"/>
	<polygon points="1050.4,194 1042.7,169.4 1040.2,169.4 1032.6,194 1025.6,169.4 1023.4,169.4 1031.3,196.7 1033.8,196.7 
		1041.5,172.1 1049.1,196.7 1051.6,196.7 1059.6,169.4 1057.4,169.4 	"/>
	<path d="M1087.3,181.8c-3.9-1.3-6.7-2.3-6.7-5.6c0-3,2.4-5.3,6.2-5.3c3.9,0,6,2.3,7,4.7l1.8-1c-1.3-3.2-4.3-5.7-8.8-5.7
		c-4.6,0-8.3,2.8-8.3,7.3c0,4.8,4.1,6,8.7,7.5c4.2,1.3,7.1,2.6,7.1,5.8c0,3.1-2.3,5.5-6.9,5.5c-4.5,0-7.3-2.2-8.2-5.5l-1.8,1.1
		c1.2,3.9,4.9,6.4,10,6.4c5.4,0,9-3,9-7.5C1096.4,184.9,1092.2,183.4,1087.3,181.8z"/>
</g>
</svg>